      2+3
5
      
      
      
      
      
      
      
      
            
      1 2 3 + 4
5 6 7
      1 2 3 + 4 5 6
5 7 9
      ⍴   1 2 3
3
      ⍴ 1 2 3 3 4
5
       2 2⍴ 1 2 3 4
1 2
3 4
       v ← 2 2⍴ 1 2 3 4
      v
1 2
3 4
      2 3 4⍴ 1
1 1 1 1
1 1 1 1
1 1 1 1

1 1 1 1
1 1 1 1
1 1 1 1
      ⍳30
1 2 3 4 5 6 7 8 9 10 11 12 13 14 15 16 17 18 19 20 21 22 23 24 25 26 27 28 29 30
      5 6 ⍴⍳30
 1  2  3  4  5  6
 7  8  9 10 11 12
13 14 15 16 17 18
19 20 21 22 23 24
25 26 27 28 29 30
      ⌽5 6 ⍴⍳30
 6  5  4  3  2  1
12 11 10  9  8  7
18 17 16 15 14 13
24 23 22 21 20 19
30 29 28 27 26 25
      v
1 2
3 4
      ⌽v
2 1
4 3
      v ← 1 2 3 4 5
      ⌽v
5 4 3 2 ⌽1
      v←5 6 ⍴⍳30
      ⌽v
 6  5  4  3  2  1
12 11 10  9  8  7
18 17 16 15 14 13
24 23 22 21 20 19
30 29 28 27 26 25v
      ⊖v
25 26 27 28 29 30
19 20 21 22 23 24
13 14 15 16 17 18
 7  8  9 10 11 12
 1  2  3  4  5  6
      v
 1  2  3  4  5  6
 7  8  9 10 11 12
13 14 15 16 17 18
19 20 21 22 23 24
25 26 27 28 29 30
      
      v
 1  2  3  4  5  6
 7  8  9 10 11 12
13 14 15 16 17 18
19 20 21 22 23 24
25 26 27 28 29 30
      1 2 3 4 5 6 ⊖v
 7 14 21 28  5 12
13 20 27  4 11 18
19 26  3 10 17 24
25  2  9 16 23 30
 1  8 15 22 29  6
      0 1 2 3 4 5  ⊖v
 1  8 15 22 29  6
 7 14 21 28  5 12
13 20 27  4 11 18
19 26  3 10 17 24
25  2  9 16 23 30
      v
 1  2  3  4  5  6
 7  8  9 10 11 12
13 14 15 16 17 18
19 20 21 22 23 24
25 26 27 28 29 30
      0 1 2 3 4 5  ⊖v
 1  8 15 22 29  6
 7 14 21 28  5 12
13 20 27  4 11 18
19 26  3 10 17 24
25  2  9 16 23 30
      v
 1  2  3  4  5  6
 7  8  9 10 11 12
13 14 15 16 17 18
19 20 21 22 23 24
25 26 27 28 29 30
      ⍴v
5 6
      ¯1 ↑ ⍴v
6
      ⍳(¯1 ↑ ⍴v)
1 2 3 4 5 6
      ¯1+⍳(¯1 ↑ ⍴v)
0 1 2 3 4 5
      ¯1+⍳(¯1 ↑ ⍴v)⊖v
RANK ERROR
      ¯1+⍳(¯1↑⍴v)⊖v
         ^^
      (¯1+⍳(¯1 ↑ ⍴v))⊖v
 1  8 15 22 29  6
 7 14 21 28  5 12
13 20 27  4 11 18
19 26  3 10 17 24
25  2  9 16 23 30
      v
 1  2  3  4  5  6
 7  8  9 10 11 12
13 14 15 16 17 18
19 20 21 22 23 24
25 26 27 28 29 30
      a ←1 2 3
      a
1 2 3
      a - 1
0 1 2
      
